#                                                                            --- full sequence --- -------------- this domain -------------   hmm coord   ali coord   env coord
# target name        accession   tlen query name           accession   qlen   E-value  score  bias   #  of  c-Evalue  i-Evalue  score  bias  from    to  from    to  from    to  acc description of target
#------------------- ---------- ----- -------------------- ---------- ----- --------- ------ ----- --- --- --------- --------- ------ ----- ----- ----- ----- ----- ----- ----- ---- ---------------------
1_4503               -            317 1069591at2           -            187     3e-48  162.2   2.3   1   2   1.5e-39   2.7e-36  123.2   0.0     2   128    13   174    12   186 0.80 # 4803041 # 4803991 # -1 # ID=1_4503;partial=00;start_type=ATG;rbs_motif=None;rbs_spacer=None;gc_cont=0.543
1_4503               -            317 1069591at2           -            187     3e-48  162.2   2.3   2   2   1.4e-08   2.6e-05   22.2   1.1   134   186   206   287   196   288 0.73 # 4803041 # 4803991 # -1 # ID=1_4503;partial=00;start_type=ATG;rbs_motif=None;rbs_spacer=None;gc_cont=0.543
1_3262               -            760 1069591at2           -            187     0.005   14.8   6.7   1   4    0.0081        15    3.5   0.0     3    38   212   246   211   252 0.84 # 3456892 # 3459171 # -1 # ID=1_3262;partial=00;start_type=ATG;rbs_motif=GGAGG;rbs_spacer=5-10bp;gc_cont=0.571
1_3262               -            760 1069591at2           -            187     0.005   14.8   6.7   2   4       0.8   1.4e+03   -3.0   0.0   158   180   319   341   316   344 0.81 # 3456892 # 3459171 # -1 # ID=1_3262;partial=00;start_type=ATG;rbs_motif=GGAGG;rbs_spacer=5-10bp;gc_cont=0.571
1_3262               -            760 1069591at2           -            187     0.005   14.8   6.7   3   4     0.014        25    2.7   0.4    96   158   409   470   404   480 0.84 # 3456892 # 3459171 # -1 # ID=1_3262;partial=00;start_type=ATG;rbs_motif=GGAGG;rbs_spacer=5-10bp;gc_cont=0.571
1_3262               -            760 1069591at2           -            187     0.005   14.8   6.7   4   4   9.2e-05      0.17    9.8   0.1     3    22   493   512   491   517 0.89 # 3456892 # 3459171 # -1 # ID=1_3262;partial=00;start_type=ATG;rbs_motif=GGAGG;rbs_spacer=5-10bp;gc_cont=0.571
2_151                -            932 1069591at2           -            187      0.17    9.7   0.0   1   3      0.76   1.4e+03   -3.0   0.1     4    24   308   328   307   329 0.84 # 147591 # 150386 # -1 # ID=2_151;partial=00;start_type=ATG;rbs_motif=AGGAG;rbs_spacer=5-10bp;gc_cont=0.656
2_151                -            932 1069591at2           -            187      0.17    9.7   0.0   2   3      0.36   6.5e+02   -1.9   0.3   133   159   599   625   553   630 0.75 # 147591 # 150386 # -1 # ID=2_151;partial=00;start_type=ATG;rbs_motif=AGGAG;rbs_spacer=5-10bp;gc_cont=0.656
2_151                -            932 1069591at2           -            187      0.17    9.7   0.0   3   3   9.6e-05      0.17    9.7   0.0     3    22   647   666   645   674 0.88 # 147591 # 150386 # -1 # ID=2_151;partial=00;start_type=ATG;rbs_motif=AGGAG;rbs_spacer=5-10bp;gc_cont=0.656
#
# Program:         hmmsearch
# Version:         3.1b2 (February 2015)
# Pipeline mode:   SEARCH
# Query file:      /hpc/dla_mm/jpaganini/data/enterobacter_kpc_brazil/2022_02_08_plasmid_mobility/results/busco_output/busco_downloads/lineages/bacteria_odb10/hmms/1069591at2.hmm
# Target file:     /hpc/dla_mm/jpaganini/data/enterobacter_kpc_brazil/2022_02_08_plasmid_mobility/results/busco_output/BHKPC104/prodigal_output/predicted_genes/predicted.faa
# Option settings: hmmsearch --domtblout /hpc/dla_mm/jpaganini/data/enterobacter_kpc_brazil/2022_02_08_plasmid_mobility/results/busco_output/BHKPC104/run_bacteria_odb10/hmmer_output/1069591at2.out --cpu 1 /hpc/dla_mm/jpaganini/data/enterobacter_kpc_brazil/2022_02_08_plasmid_mobility/results/busco_output/busco_downloads/lineages/bacteria_odb10/hmms/1069591at2.hmm /hpc/dla_mm/jpaganini/data/enterobacter_kpc_brazil/2022_02_08_plasmid_mobility/results/busco_output/BHKPC104/prodigal_output/predicted_genes/predicted.faa 
# Current dir:     /hpc/dla_mm/jpaganini/data/enterobacter_kpc_brazil/2022_02_08_plasmid_mobility/results/busco_output
# Date:            Mon Dec 26 10:41:24 2022
# [ok]
