#                                                                            --- full sequence --- -------------- this domain -------------   hmm coord   ali coord   env coord
# target name        accession   tlen query name           accession   qlen   E-value  score  bias   #  of  c-Evalue  i-Evalue  score  bias  from    to  from    to  from    to  acc description of target
#------------------- ---------- ----- -------------------- ---------- ----- --------- ------ ----- --- --- --------- --------- ------ ----- ----- ----- ----- ----- ----- ----- ---- ---------------------
1_1216               -             83 1937072at2           -             71   7.3e-31  104.0   0.3   1   1   8.6e-34   2.3e-30  102.4   0.3     2    70     1    77     1    78 0.93 # 1252337 # 1252585 # 1 # ID=1_1216;partial=00;start_type=ATG;rbs_motif=GGAG/GAGG;rbs_spacer=5-10bp;gc_cont=0.542
1_3008               -            188 1937072at2           -             71     0.018   13.1   0.0   1   1   1.2e-05     0.033   12.2   0.0    20    50    92   122    86   129 0.93 # 3180609 # 3181172 # -1 # ID=1_3008;partial=00;start_type=ATG;rbs_motif=AGGA;rbs_spacer=5-10bp;gc_cont=0.527
#
# Program:         hmmsearch
# Version:         3.1b2 (February 2015)
# Pipeline mode:   SEARCH
# Query file:      /hpc/dla_mm/jpaganini/data/enterobacter_kpc_brazil/2022_02_08_plasmid_mobility/results/busco_output/busco_downloads/lineages/bacteria_odb10/hmms/1937072at2.hmm
# Target file:     /hpc/dla_mm/jpaganini/data/enterobacter_kpc_brazil/2022_02_08_plasmid_mobility/results/busco_output/BHKPC104/prodigal_output/predicted_genes/predicted.faa
# Option settings: hmmsearch --domtblout /hpc/dla_mm/jpaganini/data/enterobacter_kpc_brazil/2022_02_08_plasmid_mobility/results/busco_output/BHKPC104/run_bacteria_odb10/hmmer_output/1937072at2.out --cpu 1 /hpc/dla_mm/jpaganini/data/enterobacter_kpc_brazil/2022_02_08_plasmid_mobility/results/busco_output/busco_downloads/lineages/bacteria_odb10/hmms/1937072at2.hmm /hpc/dla_mm/jpaganini/data/enterobacter_kpc_brazil/2022_02_08_plasmid_mobility/results/busco_output/BHKPC104/prodigal_output/predicted_genes/predicted.faa 
# Current dir:     /hpc/dla_mm/jpaganini/data/enterobacter_kpc_brazil/2022_02_08_plasmid_mobility/results/busco_output
# Date:            Mon Dec 26 10:41:29 2022
# [ok]
