#                                                                            --- full sequence --- -------------- this domain -------------   hmm coord   ali coord   env coord
# target name        accession   tlen query name           accession   qlen   E-value  score  bias   #  of  c-Evalue  i-Evalue  score  bias  from    to  from    to  from    to  acc description of target
#------------------- ---------- ----- -------------------- ---------- ----- --------- ------ ----- --- --- --------- --------- ------ ----- ----- ----- ----- ----- ----- ----- ---- ---------------------
1_392                -            104 2012682at2           -             88   1.3e-42  142.1   1.4   1   1   4.2e-46   2.3e-42  141.4   1.4     1    87     4   100     4   101 0.94 # 429998 # 430309 # 1 # ID=1_392;partial=00;start_type=ATG;rbs_motif=GGAG/GAGG;rbs_spacer=5-10bp;gc_cont=0.542
#
# Program:         hmmsearch
# Version:         3.1b2 (February 2015)
# Pipeline mode:   SEARCH
# Query file:      /hpc/dla_mm/jpaganini/data/enterobacter_kpc_brazil/2022_02_08_plasmid_mobility/results/busco_output/busco_downloads/lineages/bacteria_odb10/hmms/2012682at2.hmm
# Target file:     /hpc/dla_mm/jpaganini/data/enterobacter_kpc_brazil/2022_02_08_plasmid_mobility/results/busco_output/BHKPC104/prodigal_output/predicted_genes/predicted.faa
# Option settings: hmmsearch --domtblout /hpc/dla_mm/jpaganini/data/enterobacter_kpc_brazil/2022_02_08_plasmid_mobility/results/busco_output/BHKPC104/run_bacteria_odb10/hmmer_output/2012682at2.out --cpu 1 /hpc/dla_mm/jpaganini/data/enterobacter_kpc_brazil/2022_02_08_plasmid_mobility/results/busco_output/busco_downloads/lineages/bacteria_odb10/hmms/2012682at2.hmm /hpc/dla_mm/jpaganini/data/enterobacter_kpc_brazil/2022_02_08_plasmid_mobility/results/busco_output/BHKPC104/prodigal_output/predicted_genes/predicted.faa 
# Current dir:     /hpc/dla_mm/jpaganini/data/enterobacter_kpc_brazil/2022_02_08_plasmid_mobility/results/busco_output
# Date:            Mon Dec 26 10:41:30 2022
# [ok]
