#                                                                            --- full sequence --- -------------- this domain -------------   hmm coord   ali coord   env coord
# target name        accession   tlen query name           accession   qlen   E-value  score  bias   #  of  c-Evalue  i-Evalue  score  bias  from    to  from    to  from    to  acc description of target
#------------------- ---------- ----- -------------------- ---------- ----- --------- ------ ----- --- --- --------- --------- ------ ----- ----- ----- ----- ----- ----- ----- ---- ---------------------
1_2916               -            866 223233at2            -            494  5.8e-155  515.1  12.0   1   2  2.1e-154  5.8e-151  501.9   9.1     1   413     3   563     3   653 0.85 # 3082192 # 3084789 # -1 # ID=1_2916;partial=00;start_type=ATG;rbs_motif=GGA/GAG/AGG;rbs_spacer=5-10bp;gc_cont=0.575
1_2916               -            866 223233at2            -            494  5.8e-155  515.1  12.0   2   2    0.0074        20    2.1   0.0   402   444   693   733   639   767 0.71 # 3082192 # 3084789 # -1 # ID=1_2916;partial=00;start_type=ATG;rbs_motif=GGA/GAG/AGG;rbs_spacer=5-10bp;gc_cont=0.575
1_2981               -            649 223233at2            -            494   2.8e-42  143.4   0.0   1   3   8.4e-21   2.3e-17   61.3   0.0    38   179    74   235    35   250 0.78 # 3150573 # 3152519 # -1 # ID=1_2981;partial=00;start_type=ATG;rbs_motif=3Base/5BMM;rbs_spacer=13-15bp;gc_cont=0.621
1_2981               -            649 223233at2            -            494   2.8e-42  143.4   0.0   2   3   2.6e-17   7.1e-14   49.7   0.0   173   245   267   342   261   357 0.87 # 3150573 # 3152519 # -1 # ID=1_2981;partial=00;start_type=ATG;rbs_motif=3Base/5BMM;rbs_spacer=13-15bp;gc_cont=0.621
1_2981               -            649 223233at2            -            494   2.8e-42  143.4   0.0   3   3   1.8e-09     5e-06   23.9   0.0   253   410   375   588   364   595 0.67 # 3150573 # 3152519 # -1 # ID=1_2981;partial=00;start_type=ATG;rbs_motif=3Base/5BMM;rbs_spacer=13-15bp;gc_cont=0.621
#
# Program:         hmmsearch
# Version:         3.1b2 (February 2015)
# Pipeline mode:   SEARCH
# Query file:      /hpc/dla_mm/jpaganini/data/enterobacter_kpc_brazil/2022_02_08_plasmid_mobility/results/busco_output/busco_downloads/lineages/bacteria_odb10/hmms/223233at2.hmm
# Target file:     /hpc/dla_mm/jpaganini/data/enterobacter_kpc_brazil/2022_02_08_plasmid_mobility/results/busco_output/BHKPC104/prodigal_output/predicted_genes/predicted.faa
# Option settings: hmmsearch --domtblout /hpc/dla_mm/jpaganini/data/enterobacter_kpc_brazil/2022_02_08_plasmid_mobility/results/busco_output/BHKPC104/run_bacteria_odb10/hmmer_output/223233at2.out --cpu 1 /hpc/dla_mm/jpaganini/data/enterobacter_kpc_brazil/2022_02_08_plasmid_mobility/results/busco_output/busco_downloads/lineages/bacteria_odb10/hmms/223233at2.hmm /hpc/dla_mm/jpaganini/data/enterobacter_kpc_brazil/2022_02_08_plasmid_mobility/results/busco_output/BHKPC104/prodigal_output/predicted_genes/predicted.faa 
# Current dir:     /hpc/dla_mm/jpaganini/data/enterobacter_kpc_brazil/2022_02_08_plasmid_mobility/results/busco_output
# Date:            Mon Dec 26 10:41:30 2022
# [ok]
