#                                                                            --- full sequence --- -------------- this domain -------------   hmm coord   ali coord   env coord
# target name        accession   tlen query name           accession   qlen   E-value  score  bias   #  of  c-Evalue  i-Evalue  score  bias  from    to  from    to  from    to  acc description of target
#------------------- ---------- ----- -------------------- ---------- ----- --------- ------ ----- --- --- --------- --------- ------ ----- ----- ----- ----- ----- ----- ----- ---- ---------------------
1_1988               -            328 469058at2            -            299  2.7e-131  435.5   0.0   1   1    6e-135  3.2e-131  435.2   0.0     6   299    17   326    12   326 0.95 # 2150075 # 2151058 # 1 # ID=1_1988;partial=00;start_type=ATG;rbs_motif=GGAG/GAGG;rbs_spacer=5-10bp;gc_cont=0.575
#
# Program:         hmmsearch
# Version:         3.1b2 (February 2015)
# Pipeline mode:   SEARCH
# Query file:      /hpc/dla_mm/jpaganini/data/enterobacter_kpc_brazil/2022_02_08_plasmid_mobility/results/busco_output/busco_downloads/lineages/bacteria_odb10/hmms/469058at2.hmm
# Target file:     /hpc/dla_mm/jpaganini/data/enterobacter_kpc_brazil/2022_02_08_plasmid_mobility/results/busco_output/BHKPC104/prodigal_output/predicted_genes/predicted.faa
# Option settings: hmmsearch --domtblout /hpc/dla_mm/jpaganini/data/enterobacter_kpc_brazil/2022_02_08_plasmid_mobility/results/busco_output/BHKPC104/run_bacteria_odb10/hmmer_output/469058at2.out --cpu 1 /hpc/dla_mm/jpaganini/data/enterobacter_kpc_brazil/2022_02_08_plasmid_mobility/results/busco_output/busco_downloads/lineages/bacteria_odb10/hmms/469058at2.hmm /hpc/dla_mm/jpaganini/data/enterobacter_kpc_brazil/2022_02_08_plasmid_mobility/results/busco_output/BHKPC104/prodigal_output/predicted_genes/predicted.faa 
# Current dir:     /hpc/dla_mm/jpaganini/data/enterobacter_kpc_brazil/2022_02_08_plasmid_mobility/results/busco_output
# Date:            Mon Dec 26 10:41:32 2022
# [ok]
