#                                                                            --- full sequence --- -------------- this domain -------------   hmm coord   ali coord   env coord
# target name        accession   tlen query name           accession   qlen   E-value  score  bias   #  of  c-Evalue  i-Evalue  score  bias  from    to  from    to  from    to  acc description of target
#------------------- ---------- ----- -------------------- ---------- ----- --------- ------ ----- --- --- --------- --------- ------ ----- ----- ----- ----- ----- ----- ----- ---- ---------------------
1_3824               -            433 932993at2            -            255   2.5e-28   97.2  29.9   1   5   8.8e-10   4.8e-06   24.2   0.1     9    57    15    71     7    83 0.83 # 4063357 # 4064655 # -1 # ID=1_3824;partial=00;start_type=ATG;rbs_motif=GGAG/GAGG;rbs_spacer=5-10bp;gc_cont=0.543
1_3824               -            433 932993at2            -            255   2.5e-28   97.2  29.9   2   5   4.2e-10   2.3e-06   25.2   2.1    65   120    99   173    93   187 0.86 # 4063357 # 4064655 # -1 # ID=1_3824;partial=00;start_type=ATG;rbs_motif=GGAG/GAGG;rbs_spacer=5-10bp;gc_cont=0.543
1_3824               -            433 932993at2            -            255   2.5e-28   97.2  29.9   3   5   8.6e-16   4.7e-12   43.9   1.0   117   190   197   286   194   319 0.85 # 4063357 # 4064655 # -1 # ID=1_3824;partial=00;start_type=ATG;rbs_motif=GGAG/GAGG;rbs_spacer=5-10bp;gc_cont=0.543
1_3824               -            433 932993at2            -            255   2.5e-28   97.2  29.9   4   5   3.1e-06     0.017   12.6   0.4   198   232   334   370   330   378 0.84 # 4063357 # 4064655 # -1 # ID=1_3824;partial=00;start_type=ATG;rbs_motif=GGAG/GAGG;rbs_spacer=5-10bp;gc_cont=0.543
1_3824               -            433 932993at2            -            255   2.5e-28   97.2  29.9   5   5   5.5e-05       0.3    8.4   1.8   218   254   384   420   382   421 0.85 # 4063357 # 4064655 # -1 # ID=1_3824;partial=00;start_type=ATG;rbs_motif=GGAG/GAGG;rbs_spacer=5-10bp;gc_cont=0.543
#
# Program:         hmmsearch
# Version:         3.1b2 (February 2015)
# Pipeline mode:   SEARCH
# Query file:      /hpc/dla_mm/jpaganini/data/enterobacter_kpc_brazil/2022_02_08_plasmid_mobility/results/busco_output/busco_downloads/lineages/bacteria_odb10/hmms/932993at2.hmm
# Target file:     /hpc/dla_mm/jpaganini/data/enterobacter_kpc_brazil/2022_02_08_plasmid_mobility/results/busco_output/BHKPC104/prodigal_output/predicted_genes/predicted.faa
# Option settings: hmmsearch --domtblout /hpc/dla_mm/jpaganini/data/enterobacter_kpc_brazil/2022_02_08_plasmid_mobility/results/busco_output/BHKPC104/run_bacteria_odb10/hmmer_output/932993at2.out --cpu 1 /hpc/dla_mm/jpaganini/data/enterobacter_kpc_brazil/2022_02_08_plasmid_mobility/results/busco_output/busco_downloads/lineages/bacteria_odb10/hmms/932993at2.hmm /hpc/dla_mm/jpaganini/data/enterobacter_kpc_brazil/2022_02_08_plasmid_mobility/results/busco_output/BHKPC104/prodigal_output/predicted_genes/predicted.faa 
# Current dir:     /hpc/dla_mm/jpaganini/data/enterobacter_kpc_brazil/2022_02_08_plasmid_mobility/results/busco_output
# Date:            Mon Dec 26 10:41:34 2022
# [ok]
