#                                                                            --- full sequence --- -------------- this domain -------------   hmm coord   ali coord   env coord
# target name        accession   tlen query name           accession   qlen   E-value  score  bias   #  of  c-Evalue  i-Evalue  score  bias  from    to  from    to  from    to  acc description of target
#------------------- ---------- ----- -------------------- ---------- ----- --------- ------ ----- --- --- --------- --------- ------ ----- ----- ----- ----- ----- ----- ----- ---- ---------------------
1_3553               -            207 1211060at2           -            164   5.7e-65  216.3   4.4   1   2   1.6e-59     3e-56  188.0   3.8     1   136     1   155     1   160 0.92 # 3765817 # 3766437 # -1 # ID=1_3553;partial=00;start_type=ATG;rbs_motif=GGAG/GAGG;rbs_spacer=5-10bp;gc_cont=0.514
1_3553               -            207 1211060at2           -            164   5.7e-65  216.3   4.4   2   2   1.6e-09   2.9e-06   25.5   0.0   121   164   156   206   152   206 0.89 # 3765817 # 3766437 # -1 # ID=1_3553;partial=00;start_type=ATG;rbs_motif=GGAG/GAGG;rbs_spacer=5-10bp;gc_cont=0.514
1_3627               -            134 1211060at2           -            164   0.00047   18.2   0.0   1   1   4.5e-07   0.00081   17.5   0.0    78   130     9    61     6    84 0.89 # 3826055 # 3826456 # 1 # ID=1_3627;partial=00;start_type=ATG;rbs_motif=AGGAG;rbs_spacer=5-10bp;gc_cont=0.572
2_320                -            292 1211060at2           -            164     0.011   13.9   0.0   1   1   9.9e-06     0.018   13.1   0.0    78   130     7    58     1    74 0.87 # 367470 # 368345 # 1 # ID=2_320;partial=00;start_type=ATG;rbs_motif=AGGAG;rbs_spacer=5-10bp;gc_cont=0.546
#
# Program:         hmmsearch
# Version:         3.1b2 (February 2015)
# Pipeline mode:   SEARCH
# Query file:      /hpc/dla_mm/jpaganini/data/enterobacter_kpc_brazil/2022_02_08_plasmid_mobility/results/busco_output/busco_downloads/lineages/bacteria_odb10/hmms/1211060at2.hmm
# Target file:     /hpc/dla_mm/jpaganini/data/enterobacter_kpc_brazil/2022_02_08_plasmid_mobility/results/busco_output/BHKPC93/prodigal_output/predicted_genes/predicted.faa
# Option settings: hmmsearch --domtblout /hpc/dla_mm/jpaganini/data/enterobacter_kpc_brazil/2022_02_08_plasmid_mobility/results/busco_output/BHKPC93/run_bacteria_odb10/hmmer_output/1211060at2.out --cpu 1 /hpc/dla_mm/jpaganini/data/enterobacter_kpc_brazil/2022_02_08_plasmid_mobility/results/busco_output/busco_downloads/lineages/bacteria_odb10/hmms/1211060at2.hmm /hpc/dla_mm/jpaganini/data/enterobacter_kpc_brazil/2022_02_08_plasmid_mobility/results/busco_output/BHKPC93/prodigal_output/predicted_genes/predicted.faa 
# Current dir:     /hpc/dla_mm/jpaganini/data/enterobacter_kpc_brazil/2022_02_08_plasmid_mobility/results/busco_output
# Date:            Mon Dec 26 10:42:19 2022
# [ok]
