#                                                                            --- full sequence --- -------------- this domain -------------   hmm coord   ali coord   env coord
# target name        accession   tlen query name           accession   qlen   E-value  score  bias   #  of  c-Evalue  i-Evalue  score  bias  from    to  from    to  from    to  acc description of target
#------------------- ---------- ----- -------------------- ---------- ----- --------- ------ ----- --- --- --------- --------- ------ ----- ----- ----- ----- ----- ----- ----- ---- ---------------------
2_488                -            154 1827295at2           -             74   1.6e-24   83.9   1.4   1   1   5.2e-26   6.9e-24   81.9   1.4     4    74    15   111    12   111 0.83 # 559212 # 559673 # 1 # ID=2_488;partial=00;start_type=ATG;rbs_motif=None;rbs_spacer=None;gc_cont=0.558
1_353                -            515 1827295at2           -             74    0.0002   19.5   0.5   1   2    0.0082       1.1    7.5   0.0     9    29    44    64    31    70 0.82 # 379478 # 381022 # -1 # ID=1_353;partial=00;start_type=ATG;rbs_motif=AGxAGG/AGGxGG;rbs_spacer=5-10bp;gc_cont=0.564
1_353                -            515 1827295at2           -             74    0.0002   19.5   0.5   2   2    0.0031      0.41    8.9   0.1     6    29   292   316   284   320 0.83 # 379478 # 381022 # -1 # ID=1_353;partial=00;start_type=ATG;rbs_motif=AGxAGG/AGGxGG;rbs_spacer=5-10bp;gc_cont=0.564
3_65                 -            932 1827295at2           -             74   0.00029   19.0   0.1   1   2     0.012       1.6    7.0   0.0    12    32   307   327   293   334 0.80 # 61137 # 63932 # -1 # ID=3_65;partial=00;start_type=ATG;rbs_motif=AGGAG;rbs_spacer=5-10bp;gc_cont=0.656
3_65                 -            932 1827295at2           -             74   0.00029   19.0   0.1   2   2    0.0032      0.43    8.8   0.0     9    32   644   667   626   671 0.81 # 61137 # 63932 # -1 # ID=3_65;partial=00;start_type=ATG;rbs_motif=AGGAG;rbs_spacer=5-10bp;gc_cont=0.656
1_1652               -            539 1827295at2           -             74   0.00031   18.9   0.1   1   2     0.003       0.4    8.9   0.0     8    31    32    56    21    62 0.81 # 1726938 # 1728554 # 1 # ID=1_1652;partial=00;start_type=ATG;rbs_motif=GGAG/GAGG;rbs_spacer=5-10bp;gc_cont=0.641
1_1652               -            539 1827295at2           -             74   0.00031   18.9   0.1   2   2    0.0094       1.2    7.4   0.0     9    28   307   326   291   331 0.80 # 1726938 # 1728554 # 1 # ID=1_1652;partial=00;start_type=ATG;rbs_motif=GGAG/GAGG;rbs_spacer=5-10bp;gc_cont=0.641
1_765                -            636 1827295at2           -             74   0.00038   18.6   0.1   1   2     0.011       1.4    7.2   0.0     9    31    30    52    19    56 0.79 # 829903 # 831810 # 1 # ID=1_765;partial=00;start_type=ATG;rbs_motif=AGGA;rbs_spacer=5-10bp;gc_cont=0.579
1_765                -            636 1827295at2           -             74   0.00038   18.6   0.1   2   2    0.0033      0.44    8.8   0.1     8    33   344   370   334   374 0.81 # 829903 # 831810 # 1 # ID=1_765;partial=00;start_type=ATG;rbs_motif=AGGA;rbs_spacer=5-10bp;gc_cont=0.579
2_977                -            319 1827295at2           -             74   0.00039   18.6   0.2   1   2     1e-05    0.0013   16.9   0.1    10    31     6    27     1    34 0.87 # 1100888 # 1101844 # 1 # ID=2_977;partial=00;start_type=ATG;rbs_motif=GGAGG;rbs_spacer=5-10bp;gc_cont=0.568
2_977                -            319 1827295at2           -             74   0.00039   18.6   0.2   2   2       5.5   7.3e+02   -1.5   0.0    10    44   154   186   140   208 0.70 # 1100888 # 1101844 # 1 # ID=2_977;partial=00;start_type=ATG;rbs_motif=GGAGG;rbs_spacer=5-10bp;gc_cont=0.568
1_704                -            760 1827295at2           -             74   0.00073   17.7   0.1   1   2     0.046       6.1    5.1   0.0    12    31   212   231   198   238 0.82 # 748778 # 751057 # 1 # ID=1_704;partial=00;start_type=ATG;rbs_motif=GGAGG;rbs_spacer=5-10bp;gc_cont=0.571
1_704                -            760 1827295at2           -             74   0.00073   17.7   0.1   2   2    0.0016      0.21    9.8   0.1    10    33   491   514   473   518 0.84 # 748778 # 751057 # 1 # ID=1_704;partial=00;start_type=ATG;rbs_motif=GGAGG;rbs_spacer=5-10bp;gc_cont=0.571
1_3618               -            174 1827295at2           -             74   0.00087   17.5   0.0   1   1   1.4e-05    0.0018   16.4   0.0    10    33     6    29     1    33 0.88 # 3815496 # 3816017 # -1 # ID=1_3618;partial=00;start_type=ATG;rbs_motif=AGxAG;rbs_spacer=5-10bp;gc_cont=0.531
2_142                -            504 1827295at2           -             74    0.0014   16.8   0.2   1   2    0.0041      0.54    8.5   0.0     8    27    29    52    21    58 0.79 # 150224 # 151735 # -1 # ID=2_142;partial=00;start_type=ATG;rbs_motif=GGAG/GAGG;rbs_spacer=5-10bp;gc_cont=0.601
2_142                -            504 1827295at2           -             74    0.0014   16.8   0.2   2   2     0.037       4.9    5.5   0.0     8    28   282   303   271   308 0.81 # 150224 # 151735 # -1 # ID=2_142;partial=00;start_type=ATG;rbs_motif=GGAG/GAGG;rbs_spacer=5-10bp;gc_cont=0.601
1_2734               -            858 1827295at2           -             74    0.0023   16.1   0.0   1   2     0.014       1.8    6.8   0.0    12    33   203   225   189   229 0.81 # 2938680 # 2941253 # -1 # ID=1_2734;partial=00;start_type=ATG;rbs_motif=GGAGG;rbs_spacer=3-4bp;gc_cont=0.568
1_2734               -            858 1827295at2           -             74    0.0023   16.1   0.0   2   2     0.037       4.9    5.4   0.0    11    30   601   620   586   625 0.87 # 2938680 # 2941253 # -1 # ID=1_2734;partial=00;start_type=ATG;rbs_motif=GGAGG;rbs_spacer=3-4bp;gc_cont=0.568
6_5                  -            332 1827295at2           -             74    0.0024   16.0   0.0   1   1   5.9e-05    0.0078   14.4   0.0     8    33   156   183   148   187 0.83 # 4073 # 5068 # -1 # ID=6_5;partial=00;start_type=ATG;rbs_motif=AGGAG;rbs_spacer=5-10bp;gc_cont=0.501
1_726                -            228 1827295at2           -             74    0.0032   15.6   0.2   1   1   4.4e-05    0.0058   14.8   0.2    10    35     7    32     1    54 0.88 # 781555 # 782238 # 1 # ID=1_726;partial=00;start_type=ATG;rbs_motif=AGGAG;rbs_spacer=5-10bp;gc_cont=0.582
1_381                -            501 1827295at2           -             74    0.0035   15.5   1.3   1   2     0.016       2.1    6.6   0.2     9    29    32    52    17    60 0.80 # 412416 # 413918 # 1 # ID=1_381;partial=00;start_type=ATG;rbs_motif=GGAG/GAGG;rbs_spacer=5-10bp;gc_cont=0.632
1_381                -            501 1827295at2           -             74    0.0035   15.5   1.3   2   2    0.0093       1.2    7.4   0.1     9    36   283   310   270   312 0.80 # 412416 # 413918 # 1 # ID=1_381;partial=00;start_type=ATG;rbs_motif=GGAG/GAGG;rbs_spacer=5-10bp;gc_cont=0.632
2_89                 -            502 1827295at2           -             74    0.0037   15.5   1.0   1   2    0.0079       1.1    7.6   0.1     8    28    29    50    18    57 0.80 # 92675 # 94180 # 1 # ID=2_89;partial=00;start_type=ATG;rbs_motif=GGAG/GAGG;rbs_spacer=5-10bp;gc_cont=0.578
2_89                 -            502 1827295at2           -             74    0.0037   15.5   1.0   2   2     0.028       3.7    5.9   0.1     9    32   279   302   269   311 0.78 # 92675 # 94180 # 1 # ID=2_89;partial=00;start_type=ATG;rbs_motif=GGAG/GAGG;rbs_spacer=5-10bp;gc_cont=0.578
1_562                -            580 1827295at2           -             74    0.0055   14.9   1.1   1   2    0.0044      0.59    8.4   0.1    10    29    35    54    23    59 0.83 # 606817 # 608556 # -1 # ID=1_562;partial=00;start_type=ATG;rbs_motif=GGA/GAG/AGG;rbs_spacer=5-10bp;gc_cont=0.610
1_562                -            580 1827295at2           -             74    0.0055   14.9   1.1   2   2      0.07       9.2    4.6   0.1     8    29   351   376   336   382 0.78 # 606817 # 608556 # -1 # ID=1_562;partial=00;start_type=ATG;rbs_motif=GGA/GAG/AGG;rbs_spacer=5-10bp;gc_cont=0.610
1_1169               -            885 1827295at2           -             74    0.0061   14.8   0.1   1   2     0.041       5.4    5.3   0.0    12    31   238   257   224   264 0.83 # 1230771 # 1233425 # 1 # ID=1_1169;partial=00;start_type=ATG;rbs_motif=GGAG/GAGG;rbs_spacer=5-10bp;gc_cont=0.643
1_1169               -            885 1827295at2           -             74    0.0061   14.8   0.1   2   2     0.018       2.3    6.5   0.1     7    32   609   635   596   640 0.82 # 1230771 # 1233425 # 1 # ID=1_1169;partial=00;start_type=ATG;rbs_motif=GGAG/GAGG;rbs_spacer=5-10bp;gc_cont=0.643
2_542                -            501 1827295at2           -             74     0.008   14.4   0.3   1   2    0.0027      0.36    9.1   0.0     8    29    33    56    23    61 0.81 # 612125 # 613627 # 1 # ID=2_542;partial=00;start_type=ATG;rbs_motif=GGA/GAG/AGG;rbs_spacer=11-12bp;gc_cont=0.618
2_542                -            501 1827295at2           -             74     0.008   14.4   0.3   2   2       0.3        39    2.6   0.0     8    26   284   304   273   310 0.81 # 612125 # 613627 # 1 # ID=2_542;partial=00;start_type=ATG;rbs_motif=GGA/GAG/AGG;rbs_spacer=11-12bp;gc_cont=0.618
2_999                -            495 1827295at2           -             74     0.017   13.3   0.0   1   2     0.034       4.5    5.6   0.0     8    28    26    50    15    58 0.79 # 1120922 # 1122406 # -1 # ID=2_999;partial=00;start_type=ATG;rbs_motif=GGA/GAG/AGG;rbs_spacer=5-10bp;gc_cont=0.577
2_999                -            495 1827295at2           -             74     0.017   13.3   0.0   2   2     0.048       6.4    5.1   0.0     8    26   277   297   266   303 0.80 # 1120922 # 1122406 # -1 # ID=2_999;partial=00;start_type=ATG;rbs_motif=GGA/GAG/AGG;rbs_spacer=5-10bp;gc_cont=0.577
1_3778               -            540 1827295at2           -             74     0.017   13.3   0.1   1   2      0.55        73    1.7   0.0    11    28    38    55    19    62 0.82 # 4005998 # 4007617 # -1 # ID=1_3778;partial=00;start_type=ATG;rbs_motif=AGGAG;rbs_spacer=5-10bp;gc_cont=0.635
1_3778               -            540 1827295at2           -             74     0.017   13.3   0.1   2   2    0.0035      0.46    8.7   0.0     9    29   368   388   353   398 0.85 # 4005998 # 4007617 # -1 # ID=1_3778;partial=00;start_type=ATG;rbs_motif=AGGAG;rbs_spacer=5-10bp;gc_cont=0.635
1_2196               -            505 1827295at2           -             74     0.019   13.2   0.2   1   2     0.043       5.7    5.2   0.0     9    27    34    52    21    58 0.81 # 2292306 # 2293820 # -1 # ID=1_2196;partial=00;start_type=ATG;rbs_motif=GGAG/GAGG;rbs_spacer=5-10bp;gc_cont=0.580
1_2196               -            505 1827295at2           -             74     0.019   13.2   0.2   2   2     0.037       4.9    5.4   0.1     9    31   283   305   267   310 0.83 # 2292306 # 2293820 # -1 # ID=1_2196;partial=00;start_type=ATG;rbs_motif=GGAG/GAGG;rbs_spacer=5-10bp;gc_cont=0.580
2_417                -            507 1827295at2           -             74     0.019   13.2   0.5   1   2    0.0056      0.74    8.1   0.1     9    32    33    56    12    61 0.80 # 482720 # 484240 # -1 # ID=2_417;partial=00;start_type=ATG;rbs_motif=AGGAG;rbs_spacer=5-10bp;gc_cont=0.637
2_417                -            507 1827295at2           -             74     0.019   13.2   0.5   2   2       0.3        40    2.5   0.0     9    27   282   300   270   307 0.83 # 482720 # 484240 # -1 # ID=2_417;partial=00;start_type=ATG;rbs_motif=AGGAG;rbs_spacer=5-10bp;gc_cont=0.637
3_93                 -            181 1827295at2           -             74     0.019   13.2   0.0   1   1   0.00025     0.033   12.4   0.0    10    28     2    20     1    25 0.88 # 90334 # 90876 # -1 # ID=3_93;partial=00;start_type=ATG;rbs_motif=GGAG/GAGG;rbs_spacer=5-10bp;gc_cont=0.558
1_145                -            425 1827295at2           -             74     0.021   13.0   0.1   1   1   0.00038     0.051   11.8   0.1     5    33   109   137   102   144 0.85 # 145650 # 146924 # 1 # ID=1_145;partial=00;start_type=ATG;rbs_motif=GGAG/GAGG;rbs_spacer=5-10bp;gc_cont=0.562
3_46                 -            584 1827295at2           -             74     0.023   12.9   0.6   1   2      0.48        64    1.9   0.0    11    33    11    33     2    37 0.83 # 49160 # 50911 # -1 # ID=3_46;partial=00;start_type=ATG;rbs_motif=AGGAGG;rbs_spacer=3-4bp;gc_cont=0.534
3_46                 -            584 1827295at2           -             74     0.023   12.9   0.6   2   2    0.0034      0.45    8.8   0.1     9    32   328   351   318   355 0.83 # 49160 # 50911 # -1 # ID=3_46;partial=00;start_type=ATG;rbs_motif=AGGAGG;rbs_spacer=3-4bp;gc_cont=0.534
2_159                -            445 1827295at2           -             74     0.025   12.8   0.0   1   2    0.0015       0.2    9.9   0.0     8    31    47    73    37    86 0.82 # 168079 # 169413 # -1 # ID=2_159;partial=00;start_type=ATG;rbs_motif=AGGA;rbs_spacer=5-10bp;gc_cont=0.569
2_159                -            445 1827295at2           -             74     0.025   12.8   0.0   2   2       2.5   3.3e+02   -0.4   0.0    16    41   294   318   287   322 0.83 # 168079 # 169413 # -1 # ID=2_159;partial=00;start_type=ATG;rbs_motif=AGGA;rbs_spacer=5-10bp;gc_cont=0.569
1_2752               -            455 1827295at2           -             74     0.025   12.8   0.1   1   1   0.00041     0.054   11.7   0.1     2    33    91   125    88   130 0.84 # 2955953 # 2957317 # -1 # ID=1_2752;partial=00;start_type=ATG;rbs_motif=GGA/GAG/AGG;rbs_spacer=5-10bp;gc_cont=0.593
2_385                -            344 1827295at2           -             74     0.026   12.7   0.0   1   1   0.00041     0.054   11.7   0.0     8    38    27    57    19    65 0.79 # 447800 # 448831 # 1 # ID=2_385;partial=00;start_type=ATG;rbs_motif=GGA/GAG/AGG;rbs_spacer=5-10bp;gc_cont=0.561
1_3673               -            238 1827295at2           -             74     0.029   12.6   0.1   1   1   0.00039     0.052   11.8   0.1     8    29    29    52    17    59 0.81 # 3880839 # 3881552 # -1 # ID=1_3673;partial=00;start_type=ATG;rbs_motif=GGAG/GAGG;rbs_spacer=5-10bp;gc_cont=0.618
1_2621               -            160 1827295at2           -             74     0.031   12.5   0.1   1   2   0.00086      0.11   10.7   0.1    11    30     4    23     2    30 0.84 # 2798317 # 2798796 # -1 # ID=1_2621;partial=00;start_type=ATG;rbs_motif=GGA/GAG/AGG;rbs_spacer=5-10bp;gc_cont=0.548
1_2621               -            160 1827295at2           -             74     0.031   12.5   0.1   2   2       5.5   7.3e+02   -1.5   0.0    24    43   110   127    97   128 0.83 # 2798317 # 2798796 # -1 # ID=1_2621;partial=00;start_type=ATG;rbs_motif=GGA/GAG/AGG;rbs_spacer=5-10bp;gc_cont=0.548
1_3790               -            514 1827295at2           -             74     0.033   12.4   0.3   1   3     0.011       1.5    7.1   0.0     8    29    26    51    11    55 0.81 # 4019559 # 4021100 # 1 # ID=1_3790;partial=00;start_type=ATG;rbs_motif=GGAG/GAGG;rbs_spacer=5-10bp;gc_cont=0.574
1_3790               -            514 1827295at2           -             74     0.033   12.4   0.3   2   3       8.1   1.1e+03   -2.1   0.0    15    36   141   161   140   162 0.76 # 4019559 # 4021100 # 1 # ID=1_3790;partial=00;start_type=ATG;rbs_motif=GGAG/GAGG;rbs_spacer=5-10bp;gc_cont=0.574
1_3790               -            514 1827295at2           -             74     0.033   12.4   0.3   3   3      0.55        73    1.7   0.0     9    28   288   307   275   311 0.81 # 4019559 # 4021100 # 1 # ID=1_3790;partial=00;start_type=ATG;rbs_motif=GGAG/GAGG;rbs_spacer=5-10bp;gc_cont=0.574
1_1884               -            357 1827295at2           -             74     0.033   12.4   0.1   1   1   0.00049     0.065   11.5   0.1     6    29    26    50    21    57 0.86 # 1955058 # 1956128 # -1 # ID=1_1884;partial=00;start_type=ATG;rbs_motif=GGAG/GAGG;rbs_spacer=5-10bp;gc_cont=0.634
2_423                -            227 1827295at2           -             74     0.036   12.3   0.0   1   1   0.00048     0.063   11.5   0.0     8    31    32    57    20    62 0.82 # 489621 # 490301 # -1 # ID=2_423;partial=00;start_type=ATG;rbs_motif=GGA/GAG/AGG;rbs_spacer=5-10bp;gc_cont=0.630
2_4                  -            371 1827295at2           -             74     0.036   12.3   0.0   1   1   0.00067     0.089   11.0   0.0     9    29    45    65    31    71 0.84 # 1978 # 3090 # -1 # ID=2_4;partial=00;start_type=ATG;rbs_motif=GGA/GAG/AGG;rbs_spacer=5-10bp;gc_cont=0.617
1_46                 -            261 1827295at2           -             74     0.041   12.1   0.0   1   1    0.0007     0.092   11.0   0.0     9    33    34    58    14    67 0.79 # 45028 # 45810 # -1 # ID=1_46;partial=00;start_type=ATG;rbs_motif=AGGAG;rbs_spacer=5-10bp;gc_cont=0.607
1_82                 -           1046 1827295at2           -             74     0.044   12.0   0.0   1   1   0.00082      0.11   10.7   0.0    10    33    32    55    21    60 0.83 # 80056 # 83193 # -1 # ID=1_82;partial=00;start_type=ATG;rbs_motif=GGAGG;rbs_spacer=5-10bp;gc_cont=0.637
1_1516               -            261 1827295at2           -             74     0.047   11.9   0.1   1   1    0.0007     0.093   11.0   0.1     7    29    34    57    23    66 0.80 # 1589537 # 1590319 # 1 # ID=1_1516;partial=00;start_type=ATG;rbs_motif=GGAG/GAGG;rbs_spacer=5-10bp;gc_cont=0.593
1_3316               -            206 1827295at2           -             74     0.048   11.9   0.0   1   1   0.00082      0.11   10.7   0.0    14    33    13    32     4    50 0.89 # 3529880 # 3530497 # 1 # ID=1_3316;partial=00;start_type=ATG;rbs_motif=AGGAG;rbs_spacer=5-10bp;gc_cont=0.600
1_45                 -            232 1827295at2           -             74      0.06   11.6   0.0   1   1   0.00092      0.12   10.6   0.0     9    30    28    49    15    57 0.84 # 44340 # 45035 # -1 # ID=1_45;partial=00;start_type=ATG;rbs_motif=GGAG/GAGG;rbs_spacer=5-10bp;gc_cont=0.614
1_2213               -            251 1827295at2           -             74     0.065   11.5   0.0   1   1     0.001      0.14   10.4   0.0     8    28    27    49    15    54 0.83 # 2310428 # 2311180 # -1 # ID=1_2213;partial=00;start_type=ATG;rbs_motif=AGGAG/GGAGG;rbs_spacer=11-12bp;gc_cont=0.582
1_3353               -            496 1827295at2           -             74     0.075   11.3   0.9   1   2     0.035       4.6    5.5   0.2     9    29    31    51    17    54 0.83 # 3570392 # 3571879 # -1 # ID=1_3353;partial=00;start_type=ATG;rbs_motif=GGAG/GAGG;rbs_spacer=5-10bp;gc_cont=0.621
1_3353               -            496 1827295at2           -             74     0.075   11.3   0.9   2   2      0.14        19    3.6   0.0     9    28   283   302   270   304 0.82 # 3570392 # 3571879 # -1 # ID=1_3353;partial=00;start_type=ATG;rbs_motif=GGAG/GAGG;rbs_spacer=5-10bp;gc_cont=0.621
3_41                 -            447 1827295at2           -             74     0.089   11.0   1.0   1   2      0.17        23    3.3   0.0    10    27    12    29     2    36 0.83 # 44938 # 46278 # 1 # ID=3_41;partial=00;start_type=ATG;rbs_motif=GGAGG;rbs_spacer=5-10bp;gc_cont=0.585
3_41                 -            447 1827295at2           -             74     0.089   11.0   1.0   2   2     0.029       3.9    5.8   0.3     8    32   328   352   317   356 0.80 # 44938 # 46278 # 1 # ID=3_41;partial=00;start_type=ATG;rbs_motif=GGAGG;rbs_spacer=5-10bp;gc_cont=0.585
#
# Program:         hmmsearch
# Version:         3.1b2 (February 2015)
# Pipeline mode:   SEARCH
# Query file:      /hpc/dla_mm/jpaganini/data/enterobacter_kpc_brazil/2022_02_08_plasmid_mobility/results/busco_output/busco_downloads/lineages/bacteria_odb10/hmms/1827295at2.hmm
# Target file:     /hpc/dla_mm/jpaganini/data/enterobacter_kpc_brazil/2022_02_08_plasmid_mobility/results/busco_output/BHKPC93/prodigal_output/predicted_genes/predicted.faa
# Option settings: hmmsearch --domtblout /hpc/dla_mm/jpaganini/data/enterobacter_kpc_brazil/2022_02_08_plasmid_mobility/results/busco_output/BHKPC93/run_bacteria_odb10/hmmer_output/1827295at2.out --cpu 1 /hpc/dla_mm/jpaganini/data/enterobacter_kpc_brazil/2022_02_08_plasmid_mobility/results/busco_output/busco_downloads/lineages/bacteria_odb10/hmms/1827295at2.hmm /hpc/dla_mm/jpaganini/data/enterobacter_kpc_brazil/2022_02_08_plasmid_mobility/results/busco_output/BHKPC93/prodigal_output/predicted_genes/predicted.faa 
# Current dir:     /hpc/dla_mm/jpaganini/data/enterobacter_kpc_brazil/2022_02_08_plasmid_mobility/results/busco_output
# Date:            Mon Dec 26 10:42:23 2022
# [ok]
