#                                                                            --- full sequence --- -------------- this domain -------------   hmm coord   ali coord   env coord
# target name        accession   tlen query name           accession   qlen   E-value  score  bias   #  of  c-Evalue  i-Evalue  score  bias  from    to  from    to  from    to  acc description of target
#------------------- ---------- ----- -------------------- ---------- ----- --------- ------ ----- --- --- --------- --------- ------ ----- ----- ----- ----- ----- ----- ----- ---- ---------------------
1_2705               -           1296 26038at2             -            439   5.9e-79  264.2  11.2   1   7   4.8e-15   2.6e-11   41.3   0.0    10    49   191   231   186   236 0.90 # 2901044 # 2904931 # -1 # ID=1_2705;partial=00;start_type=ATG;rbs_motif=GGA/GAG/AGG;rbs_spacer=5-10bp;gc_cont=0.630
1_2705               -           1296 26038at2             -            439   5.9e-79  264.2  11.2   2   7   8.6e-21   4.7e-17   60.2   0.3    57    99   288   332   286   342 0.87 # 2901044 # 2904931 # -1 # ID=1_2705;partial=00;start_type=ATG;rbs_motif=GGA/GAG/AGG;rbs_spacer=5-10bp;gc_cont=0.630
1_2705               -           1296 26038at2             -            439   5.9e-79  264.2  11.2   3   7     0.013        69    0.4   0.0   105   128   363   387   357   392 0.88 # 2901044 # 2904931 # -1 # ID=1_2705;partial=00;start_type=ATG;rbs_motif=GGA/GAG/AGG;rbs_spacer=5-10bp;gc_cont=0.630
1_2705               -           1296 26038at2             -            439   5.9e-79  264.2  11.2   4   7     5e-31   2.7e-27   94.0   0.0   143   258   432   585   401   589 0.79 # 2901044 # 2904931 # -1 # ID=1_2705;partial=00;start_type=ATG;rbs_motif=GGA/GAG/AGG;rbs_spacer=5-10bp;gc_cont=0.630
1_2705               -           1296 26038at2             -            439   5.9e-79  264.2  11.2   5   7   2.2e-09   1.2e-05   22.6   0.2   284   328   691   735   663   740 0.89 # 2901044 # 2904931 # -1 # ID=1_2705;partial=00;start_type=ATG;rbs_motif=GGA/GAG/AGG;rbs_spacer=5-10bp;gc_cont=0.630
1_2705               -           1296 26038at2             -            439   5.9e-79  264.2  11.2   6   7   2.8e-09   1.5e-05   22.3   0.0   315   390   756   850   750   860 0.75 # 2901044 # 2904931 # -1 # ID=1_2705;partial=00;start_type=ATG;rbs_motif=GGA/GAG/AGG;rbs_spacer=5-10bp;gc_cont=0.630
1_2705               -           1296 26038at2             -            439   5.9e-79  264.2  11.2   7   7   1.8e-08    0.0001   19.6   0.0   388   436   877   936   868   939 0.74 # 2901044 # 2904931 # -1 # ID=1_2705;partial=00;start_type=ATG;rbs_motif=GGA/GAG/AGG;rbs_spacer=5-10bp;gc_cont=0.630
#
# Program:         hmmsearch
# Version:         3.1b2 (February 2015)
# Pipeline mode:   SEARCH
# Query file:      /hpc/dla_mm/jpaganini/data/enterobacter_kpc_brazil/2022_02_08_plasmid_mobility/results/busco_output/busco_downloads/lineages/bacteria_odb10/hmms/26038at2.hmm
# Target file:     /hpc/dla_mm/jpaganini/data/enterobacter_kpc_brazil/2022_02_08_plasmid_mobility/results/busco_output/BHKPC93/prodigal_output/predicted_genes/predicted.faa
# Option settings: hmmsearch --domtblout /hpc/dla_mm/jpaganini/data/enterobacter_kpc_brazil/2022_02_08_plasmid_mobility/results/busco_output/BHKPC93/run_bacteria_odb10/hmmer_output/26038at2.out --cpu 1 /hpc/dla_mm/jpaganini/data/enterobacter_kpc_brazil/2022_02_08_plasmid_mobility/results/busco_output/busco_downloads/lineages/bacteria_odb10/hmms/26038at2.hmm /hpc/dla_mm/jpaganini/data/enterobacter_kpc_brazil/2022_02_08_plasmid_mobility/results/busco_output/BHKPC93/prodigal_output/predicted_genes/predicted.faa 
# Current dir:     /hpc/dla_mm/jpaganini/data/enterobacter_kpc_brazil/2022_02_08_plasmid_mobility/results/busco_output
# Date:            Mon Dec 26 10:42:25 2022
# [ok]
